launch_status failed=2 1671090038000000000
launch_status broken=2 1671090038000000000
launch_status passed=29 1671090038000000000
launch_status skipped=3 1671090038000000000
launch_status unknown=0 1671090038000000000
launch_time duration=12738223 1671090038000000000
launch_time min_duration=0 1671090038000000000
launch_time max_duration=6603 1671090038000000000
launch_time sum_duration=49585 1671090038000000000
launch_problems product_defects=2 1671090038000000000
launch_problems test_defects=2 1671090038000000000
launch_retries retries=198 1671090038000000000
launch_retries run=36 1671090038000000000
